refV = 3944
0,  8.88,  5.81,  4.00,  13.69 
1,  44.75,  4.19,  2.06,  13.31 
2,  81.31,  4.62,  1.56,  14.06 
3,  119.88,  3.44,  2.94,  14.31 
4,  158.50,  3.00,  2.88,  13.88 
5,  198.00,  3.44,  2.69,  14.00 
6,  239.75,  3.62,  2.38,  13.75 
7,  279.56,  3.88,  2.81,  13.88 
8,  319.81,  3.38,  2.38,  14.00 
9,  359.12,  4.12,  3.25,  13.94 
10,  399.31,  4.25,  4.69,  13.81 
11,  437.38,  4.44,  5.50,  13.50 
12,  476.50,  7.81,  4.56,  14.06 
13,  515.25,  7.56,  5.00,  14.19 
14,  554.00,  6.75,  4.12,  13.56 
15,  592.44,  6.38,  4.06,  14.19 
16,  631.38,  4.88,  3.62,  12.81 
17,  671.69,  5.12,  4.25,  13.69 
18,  711.81,  4.94,  3.62,  13.62 
19,  753.00,  4.88,  3.31,  14.00 
20,  792.62,  5.12,  3.19,  13.75 
21,  831.38,  5.44,  4.12,  13.81 
22,  869.69,  5.12,  3.50,  14.31 
23,  906.81,  4.94,  4.31,  13.62 
24,  943.75,  5.50,  4.19,  13.62 
25,  980.00,  6.00,  3.69,  12.88 
26,  1022.81,  5.50,  4.19,  13.31 
27,  1067.12,  5.56,  3.69,  13.88 
28,  1107.81,  6.06,  3.69,  13.69 
29,  1148.00,  5.56,  3.75,  13.12 
30,  1187.50,  6.00,  7.38,  13.44 
31,  1225.62,  6.06,  6.88,  13.81 
32,  1264.62,  6.69,  7.06,  13.88 
33,  1300.69,  6.69,  6.38,  13.12 
34,  1338.25,  6.56,  5.62,  13.50 
35,  1376.88,  7.12,  5.69,  13.69 
36,  1415.81,  6.88,  6.00,  14.25 
37,  1462.56,  6.62,  5.00,  13.19 
38,  1503.19,  6.56,  5.38,  13.44 
39,  1542.81,  6.56,  5.38,  13.50 
40,  1582.50,  6.44,  4.56,  13.81 
41,  1620.50,  5.94,  6.00,  14.12 
42,  1659.38,  6.44,  6.50,  14.38 
43,  1695.69,  5.94,  5.94,  13.56 
44,  1732.81,  7.06,  6.44,  12.94 
45,  1771.75,  10.75,  6.69,  13.81 
46,  1810.44,  10.25,  6.56,  13.25 
47,  1851.69,  9.44,  6.62,  13.50 
48,  1894.44,  9.00,  6.44,  13.69 
49,  1936.44,  8.25,  6.75,  13.56 
50,  1977.06,  7.94,  6.69,  14.00 
51,  2015.81,  8.38,  6.81,  13.69 
52,  2055.06,  6.94,  6.38,  13.44 
53,  2091.94,  7.50,  7.12,  13.31 
54,  2128.56,  8.56,  7.56,  13.25 
55,  2166.56,  15.31,  7.12,  12.81 
56,  2204.94,  14.06,  8.19,  13.81 
57,  2246.81,  12.62,  8.19,  13.69 
58,  2288.44,  10.62,  8.50,  13.31 
59,  2329.56,  9.81,  9.56,  13.06 
60,  2369.19,  8.94,  11.50,  14.25 
61,  2405.88,  8.88,  11.69,  14.06 
62,  2443.75,  9.25,  11.69,  13.81 
63,  2482.94,  8.88,  12.00,  14.06 
64,  2523.25,  9.12,  12.88,  13.44 
65,  2560.88,  9.56,  13.38,  14.38 
66,  2599.31,  9.75,  13.56,  13.88 
67,  2641.12,  8.94,  13.31,  13.94 
68,  2682.81,  9.06,  13.19,  14.06 
69,  2723.31,  9.50,  14.50,  14.25 
70,  2762.69,  9.50,  17.62,  14.19 
71,  2799.81,  10.06,  19.25,  14.31 
72,  2838.00,  9.94,  20.38,  13.62 
73,  2876.25,  9.56,  20.81,  13.81 
74,  2916.75,  9.69,  20.44,  14.75 
75,  2956.19,  9.94,  21.00,  13.81 
76,  2995.50,  9.38,  21.06,  14.06 
77,  3036.56,  9.56,  20.75,  13.31 
78,  3076.88,  9.62,  20.88,  13.31 
79,  3117.56,  10.06,  21.75,  13.75 
80,  3156.06,  10.44,  22.38,  13.31 
81,  3194.56,  10.56,  22.94,  13.81 
82,  3233.62,  10.19,  23.81,  13.31 
83,  3271.56,  10.12,  24.12,  12.94 
84,  3310.00,  10.00,  25.25,  15.19 
85,  3348.19,  10.06,  25.81,  13.06 
86,  3386.81,  9.94,  25.31,  13.69 
87,  3428.81,  10.31,  25.94,  13.94 
88,  3468.38,  9.69,  25.69,  13.38 
89,  3508.56,  11.00,  24.56,  13.38 
90,  3547.88,  11.50,  24.75,  13.75 
91,  3586.06,  12.31,  29.12,  13.50 
92,  3625.06,  13.31,  29.44,  12.81 
93,  3664.19,  13.56,  31.19,  13.50 
94,  3703.06,  13.69,  32.06,  13.06 
95,  3744.94,  12.62,  31.19,  13.38 
96,  3784.06,  13.44,  33.00,  13.56 
97,  3823.94,  12.69,  33.19,  13.88 
98,  3862.62,  12.06,  33.38,  12.81 
99,  3881.12,  12.81,  34.25,  13.56 
100,  3884.94,  12.19,  35.94,  14.25 
