refV = 3938
0,  5.31,  4.50,  3905.81,  10.88 
1,  40.81,  40.69,  3904.12,  10.56 
2,  77.25,  80.69,  3904.56,  11.44 
3,  116.62,  118.81,  3905.88,  10.94 
4,  155.12,  157.50,  3906.75,  11.19 
5,  195.31,  196.62,  3905.81,  10.88 
6,  234.62,  235.44,  3906.00,  10.81 
7,  275.81,  274.94,  3905.06,  11.12 
8,  316.12,  314.69,  3905.56,  10.88 
9,  355.75,  356.06,  3907.00,  11.44 
10,  395.81,  395.25,  3907.00,  12.44 
11,  435.00,  437.69,  3908.19,  19.19 
12,  472.38,  476.00,  3862.50,  61.50 
13,  512.19,  507.12,  3658.19,  241.06 
14,  549.44,  532.69,  3196.88,  654.00 
15,  589.69,  553.25,  2562.62,  1224.62 
16,  628.56,  570.62,  1837.19,  1860.06 
17,  668.44,  586.88,  1090.62,  2495.94 
18,  708.81,  598.81,  572.88,  2957.56 
19,  748.94,  607.12,  376.31,  3135.00 
20,  789.38,  613.81,  247.81,  3252.19 
21,  828.38,  616.88,  194.38,  3304.88 
22,  866.88,  617.69,  173.44,  3325.50 
23,  903.81,  618.94,  160.75,  3340.69 
24,  940.31,  619.00,  153.31,  3351.44 
25,  977.69,  620.62,  146.12,  3360.75 
26,  1017.06,  621.12,  140.31,  3368.56 
27,  1063.38,  621.25,  133.25,  3375.81 
28,  1102.69,  622.88,  125.94,  3383.50 
29,  1143.44,  622.81,  128.31,  3388.75 
30,  1182.25,  623.88,  130.38,  3395.06 
31,  1222.31,  624.62,  126.56,  3400.50 
32,  1260.75,  624.94,  123.81,  3406.50 
33,  1296.75,  625.75,  121.38,  3411.81 
34,  1335.00,  626.31,  119.44,  3416.94 
35,  1372.94,  627.44,  118.38,  3422.50 
36,  1414.88,  627.50,  115.69,  3426.94 
37,  1458.88,  627.94,  113.19,  3432.69 
38,  1497.19,  628.00,  111.50,  3436.81 
39,  1537.38,  629.12,  109.81,  3441.62 
40,  1577.81,  629.19,  110.25,  3445.94 
41,  1616.19,  629.38,  109.38,  3450.94 
42,  1655.25,  628.75,  108.38,  3455.44 
43,  1691.81,  628.50,  107.62,  3458.62 
44,  1729.19,  634.06,  106.94,  3463.56 
45,  1767.94,  632.75,  106.31,  3468.06 
46,  1805.69,  630.75,  105.88,  3472.25 
47,  1847.00,  634.94,  104.25,  3477.81 
48,  1889.94,  634.56,  103.00,  3480.81 
49,  1931.94,  634.88,  103.31,  3485.31 
50,  1972.69,  634.56,  102.19,  3489.88 
51,  2011.12,  634.62,  101.75,  3493.94 
52,  2050.00,  634.88,  101.31,  3498.06 
53,  2086.88,  634.25,  100.38,  3501.19 
54,  2123.56,  642.62,  101.19,  3505.38 
55,  2161.88,  641.69,  100.44,  3510.12 
56,  2200.56,  639.19,  100.19,  3514.19 
57,  2242.31,  640.25,  98.62,  3517.94 
58,  2283.56,  639.25,  97.62,  3521.44 
59,  2325.56,  639.12,  98.19,  3525.25 
60,  2364.62,  639.69,  96.94,  3529.88 
61,  2402.19,  639.69,  97.56,  3533.06 
62,  2440.00,  639.88,  98.00,  3536.81 
63,  2477.12,  640.00,  97.25,  3541.44 
64,  2517.25,  640.56,  98.50,  3545.50 
65,  2556.81,  641.06,  97.12,  3549.00 
66,  2594.94,  641.81,  96.19,  3553.44 
67,  2635.75,  641.62,  95.19,  3556.69 
68,  2677.44,  641.81,  93.50,  3561.00 
69,  2718.12,  642.00,  93.31,  3565.31 
70,  2758.19,  642.44,  91.56,  3568.62 
71,  2795.56,  643.31,  94.81,  3573.00 
72,  2834.56,  643.19,  100.25,  3576.50 
73,  2870.62,  643.50,  99.44,  3580.25 
74,  2911.81,  644.25,  98.75,  3585.31 
75,  2951.06,  644.88,  97.25,  3588.06 
76,  2989.44,  645.44,  96.06,  3591.81 
77,  3030.81,  645.31,  95.12,  3596.31 
78,  3070.56,  645.44,  94.19,  3599.44 
79,  3112.06,  646.25,  93.56,  3603.44 
80,  3150.94,  646.62,  93.44,  3607.19 
81,  3189.62,  647.06,  92.88,  3610.50 
82,  3229.25,  647.25,  92.69,  3615.38 
83,  3267.12,  647.31,  93.06,  3618.06 
84,  3305.38,  648.44,  93.69,  3624.81 
85,  3343.69,  647.69,  93.56,  3625.62 
86,  3382.06,  646.81,  92.44,  3628.50 
87,  3423.88,  646.25,  91.44,  3633.75 
88,  3463.12,  645.06,  90.12,  3636.19 
89,  3503.56,  648.31,  90.00,  3640.38 
90,  3543.44,  649.81,  87.62,  3644.12 
91,  3581.56,  652.81,  87.75,  3647.38 
92,  3620.81,  652.12,  90.62,  3651.81 
93,  3658.62,  652.00,  91.88,  3654.62 
94,  3699.69,  652.31,  91.81,  3658.12 
95,  3740.38,  652.44,  92.00,  3662.12 
96,  3778.38,  652.19,  91.50,  3665.94 
97,  3818.62,  652.31,  92.44,  3669.88 
98,  3857.31,  652.75,  90.31,  3673.88 
99,  3883.06,  652.31,  91.12,  3674.69 
100,  3887.12,  652.25,  92.38,  3675.38 
